<?xml version="1.0" encoding="utf-8"?>
<!-- Generator: Adobe Illustrator 19.2.1, SVG Export Plug-In . SVG Version: 6.00 Build 0)  -->
<svg version="1.1" id="Layer_1" xmlns="http://www.w3.org/2000/svg" xmlns:xlink="http://www.w3.org/1999/xlink" x="0px" y="0px"
	 viewBox="0 0 150.8 24.2" style="enable-background:new 0 0 150.8 24.2;" xml:space="preserve">
<style type="text/css">
	.st0{fill:url(#SVGID_1_);}
	.st1{fill:url(#SVGID_2_);}
	.st2{fill:#EA960F;}
	.st3{fill:#6A716C;}
</style>
<g>
	<g>
		<g>
			
				<linearGradient id="SVGID_1_" gradientUnits="userSpaceOnUse" x1="-20.2034" y1="25.6791" x2="12.1049" y2="25.6791" gradientTransform="matrix(0.9733 -0.2297 0.2297 0.9733 14.9872 -13.3975)">
				<stop  offset="0" style="stop-color:#0B8D98"/>
				<stop  offset="1" style="stop-color:#5EBC1C"/>
			</linearGradient>
			<path class="st0" d="M30.6,1.5c-0.8-0.8-2.2-0.9-3.1,0L11.7,17.3l-8-8c-0.8-0.8-2.2-0.9-3.1,0c-0.8,0.8-0.9,2.2,0,3.1l9.5,9.6
				c0.8,0.8,2.2,0.9,3.1,0L30.6,4.6C31.5,3.8,31.5,2.4,30.6,1.5z"/>
		</g>
		<g>
			
				<linearGradient id="SVGID_2_" gradientUnits="userSpaceOnUse" x1="-10.9226" y1="19.9312" x2="2.8241" y2="19.9312" gradientTransform="matrix(0.9733 -0.2297 0.2297 0.9733 14.9872 -13.3975)">
				<stop  offset="0" style="stop-color:#0B8D98"/>
				<stop  offset="1" style="stop-color:#5EBC1C"/>
			</linearGradient>
			<path class="st1" d="M13.2,12.4l7.8-7.8c0.8-0.8,0.9-2.2,0-3.1c-0.8-0.8-2.2-0.9-3.1,0l-7.8,7.8c-0.8,0.8-0.9,2.2,0,3.1
				C11,13.2,12.4,13.2,13.2,12.4z"/>
		</g>
	</g>
</g>
<path class="st2" d="M11.5,1.5L11.5,1.5c0.8,0.8,0.8,2.2,0,3.1L8.5,7.6c-0.8,0.8-2.2,0.8-3.1,0l0,0c-0.8-0.8-0.8-2.2,0-3.1l3.1-3.1
	C9.3,0.6,10.7,0.6,11.5,1.5z"/>
<g>
	<path class="st3" d="M48.9,5.5c3.2,0,5,2.3,5,5.9c0,0.4,0,0.9-0.1,1.2h-8.5c0.2,2.7,1.8,4.4,4.2,4.4c1.2,0,2.2-0.4,3.1-1l0.8,1.4
		c-1.1,0.7-2.4,1.3-4.2,1.3c-3.4,0-6.1-2.5-6.1-6.6C43.2,8,46,5.5,48.9,5.5z M52,11.2c0-2.6-1.1-4-3.1-4c-1.8,0-3.4,1.5-3.6,4H52z"
		/>
	<path class="st3" d="M63.8,10.5c0-1.6-0.5-3.2-2.6-3.2c-1.5,0-2.8,0.7-3.8,1.4l-0.9-1.5c1.2-0.8,2.9-1.6,5-1.6
		c3.1,0,4.4,2.1,4.4,5.2v7.7h-1.8L64,17h-0.1c-1.2,1-2.6,1.8-4.2,1.8c-2.1,0-3.7-1.3-3.7-3.6C56,12.4,58.4,11.1,63.8,10.5z
		 M60.3,17.1c1.2,0,2.2-0.6,3.5-1.7v-3.5c-4.2,0.5-5.7,1.6-5.7,3.2C58.1,16.5,59.1,17.1,60.3,17.1z"/>
	<path class="st3" d="M69.6,15.6c1.1,0.9,2.2,1.5,3.7,1.5c1.7,0,2.5-0.9,2.5-2c0-1.3-1.5-1.9-2.9-2.4c-1.8-0.7-3.8-1.5-3.8-3.6
		c0-2,1.6-3.6,4.3-3.6c1.6,0,3,0.6,3.9,1.4l-1,1.4c-0.9-0.6-1.8-1.1-2.9-1.1C72,7.2,71.2,8,71.2,9c0,1.2,1.4,1.6,2.8,2.2
		c1.8,0.7,3.8,1.4,3.8,3.8c0,2.1-1.6,3.8-4.6,3.8c-1.8,0-3.5-0.8-4.7-1.7L69.6,15.6z"/>
	<path class="st3" d="M81,22.1c1.4,0,2.3-1.1,2.9-2.7l0.3-0.9L79,5.8h2.2l2.6,7c0.4,1.1,0.8,2.4,1.2,3.6h0.1
		c0.4-1.1,0.7-2.4,1.1-3.6l2.3-7h2.1l-4.8,13.7c-0.9,2.5-2.2,4.4-4.7,4.4c-0.6,0-1.1-0.1-1.5-0.3l0.4-1.7C80.3,22,80.7,22.1,81,22.1
		z"/>
	<path class="st3" d="M98.3,5.4c1.6,0,2.9,0.6,3.7,1.5l-1.4,1.9c-0.7-0.6-1.4-0.9-2.2-0.9c-2.1,0-3.5,1.7-3.5,4.3
		c0,2.5,1.4,4.2,3.4,4.2c1,0,1.9-0.5,2.6-1.1l1.2,1.9c-1.2,1.1-2.7,1.6-4.2,1.6c-3.5,0-6.2-2.4-6.2-6.7C91.9,7.8,94.9,5.4,98.3,5.4z
		"/>
	<path class="st3" d="M104.8,0.1h3v15.2c0,0.7,0.3,1,0.6,1c0.1,0,0.2,0,0.5-0.1l0.4,2.2c-0.4,0.2-0.9,0.3-1.6,0.3
		c-2.1,0-2.9-1.4-2.9-3.6V0.1z"/>
	<path class="st3" d="M118.8,10.3c0-1.4-0.6-2.5-2.3-2.5c-1.3,0-2.5,0.6-3.6,1.2l-1.1-2c1.4-0.9,3.2-1.7,5.2-1.7
		c3.2,0,4.8,2,4.8,5.5v7.6h-2.4l-0.2-1.4H119c-1.1,1-2.4,1.7-4,1.7c-2.2,0-3.8-1.5-3.8-3.7C111.3,12.3,113.6,10.9,118.8,10.3z
		 M116,16.4c1,0,1.8-0.5,2.8-1.4v-2.9c-3.5,0.4-4.6,1.4-4.6,2.6C114.2,15.9,115,16.4,116,16.4z"/>
	<path class="st3" d="M125.1,1.8c0-1,0.8-1.7,1.8-1.7c1.1,0,1.8,0.7,1.8,1.7c0,1-0.8,1.7-1.8,1.7C125.9,3.5,125.1,2.8,125.1,1.8z
		 M125.4,5.7h3v12.8h-3V5.7z"/>
	<path class="st3" d="M132.3,5.7h2.5l0.2,1.7h0.1c1.1-1.1,2.3-2.1,3.9-2.1c1.9,0,2.9,0.9,3.5,2.3c1.2-1.3,2.5-2.3,4.1-2.3
		c2.7,0,4,1.8,4,5.1v8h-3v-7.6c0-2.1-0.6-2.9-1.9-2.9c-0.8,0-1.7,0.5-2.7,1.6v8.9h-3v-7.6c0-2.1-0.6-2.9-2-2.9
		c-0.8,0-1.7,0.5-2.7,1.6v8.9h-3V5.7z"/>
</g>
</svg>
