<?xml version="1.0" encoding="utf-8"?>
<!-- Generator: Adobe Illustrator 19.2.1, SVG Export Plug-In . SVG Version: 6.00 Build 0)  -->
<svg version="1.1" id="Layer_1" xmlns="http://www.w3.org/2000/svg" xmlns:xlink="http://www.w3.org/1999/xlink" x="0px" y="0px"
	 viewBox="0 0 118 22" style="enable-background:new 0 0 118 22;" xml:space="preserve">
<style type="text/css">
	.st0{fill:#FFFFFF;}
	.st1{fill:#EA960F;}
	.st2{font-family:'SourceSansPro-Regular';}
	.st3{font-size:20.4122px;}
	.st4{font-family:'SourceSansPro-Semibold';}
</style>
<path class="st0" d="M25.3,3.4c-0.7-0.7-1.7-0.7-2.4,0L10.4,15.8L4.2,9.5c-0.7-0.7-1.7-0.7-2.4,0c-0.7,0.7-0.7,1.7,0,2.4l7.5,7.5
	c0.7,0.7,1.7,0.7,2.4,0L25.3,5.9C25.9,5.2,26,4.1,25.3,3.4z"/>
<path class="st0" d="M11,12l6.1-6.1c0.7-0.7,0.7-1.7,0-2.4c-0.7-0.7-1.7-0.7-2.4,0L8.6,9.5c-0.7,0.7-0.7,1.7,0,2.4
	C9.3,12.6,10.4,12.6,11,12z"/>
<path class="st1" d="M9.6,3.3l0.2,0.2c0.6,0.6,0.6,1.6,0,2.2L7.2,8.3C6.6,8.9,5.6,8.9,5,8.3L4.8,8.1c-0.6-0.6-0.6-1.6,0-2.2l2.7-2.6
	C8,2.7,9,2.7,9.6,3.3z"/>
<text transform="matrix(1 0 0 1 31.6055 16.7395)"><tspan x="0" y="0" class="st0 st2 st3">easy</tspan><tspan x="38.7" y="0" class="st0 st4 st3">claim</tspan></text>
</svg>
